{
  "openapi": "3.0.2",
  "info": {
    "title": "MTLG Identification Server",
    "version": "0.1.0"
  },
  "paths": {
    "/manage/players/": {
      "get": {
        "tags": ["manage"],
        "summary": "Get Players",
        "operationId": "get_players_manage_players__get",
        "responses": {
          "200": {
            "description": "Successful Response",
            "content": {
              "application/json": {
                "schema": {}
              }
            }
          }
        }
      }
    },
    "/manage/player/": {
      "put": {
        "tags": ["manage"],
        "summary": "Create Player",
        "operationId": "create_player_manage_player__put",
        "requestBody": {
          "content": {
            "application/json": {
              "schema": {
                "$ref": "#/components/schemas/CreatePlayerRequest"
              }
            }
          },
          "required": true
        },
        "responses": {
          "200": {
            "description": "Successful Response",
            "content": {
              "application/json": {
                "schema": {}
              }
            }
          },
          "422": {
            "description": "Validation Error",
            "content": {
              "application/json": {
                "schema": {
                  "$ref": "#/components/schemas/HTTPValidationError"
                }
              }
            }
          }
        }
      },
      "delete": {
        "tags": ["manage"],
        "summary": "Delete Player",
        "operationId": "delete_player_manage_player__delete",
        "requestBody": {
          "content": {
            "application/json": {
              "schema": {
                "$ref": "#/components/schemas/PseudonymRequest"
              }
            }
          },
          "required": true
        },
        "responses": {
          "200": {
            "description": "Successful Response",
            "content": {
              "application/json": {
                "schema": {}
              }
            }
          },
          "422": {
            "description": "Validation Error",
            "content": {
              "application/json": {
                "schema": {
                  "$ref": "#/components/schemas/HTTPValidationError"
                }
              }
            }
          }
        }
      }
    },
    "/manage/login/": {
      "put": {
        "tags": ["manage"],
        "summary": "Create Login",
        "operationId": "create_login_manage_login__put",
        "requestBody": {
          "content": {
            "application/json": {
              "schema": {
                "$ref": "#/components/schemas/CreateLoginRequest"
              }
            }
          },
          "required": true
        },
        "responses": {
          "200": {
            "description": "Successful Response",
            "content": {
              "application/json": {
                "schema": {}
              }
            }
          },
          "422": {
            "description": "Validation Error",
            "content": {
              "application/json": {
                "schema": {
                  "$ref": "#/components/schemas/HTTPValidationError"
                }
              }
            }
          }
        }
      }
    },
    "/manage/login/method/": {
      "put": {
        "tags": ["manage"],
        "summary": "Manage Login Method",
        "operationId": "manage_login_method_manage_login_method__put",
        "requestBody": {
          "content": {
            "application/json": {
              "schema": {
                "$ref": "#/components/schemas/ManageLoginMethodRequest"
              }
            }
          },
          "required": true
        },
        "responses": {
          "200": {
            "description": "Successful Response",
            "content": {
              "application/json": {
                "schema": {}
              }
            }
          },
          "422": {
            "description": "Validation Error",
            "content": {
              "application/json": {
                "schema": {
                  "$ref": "#/components/schemas/HTTPValidationError"
                }
              }
            }
          }
        }
      },
      "delete": {
        "tags": ["manage"],
        "summary": "Delete Login Method",
        "operationId": "delete_login_method_manage_login_method__delete",
        "requestBody": {
          "content": {
            "application/json": {
              "schema": {
                "$ref": "#/components/schemas/DeleteLoginRequest"
              }
            }
          },
          "required": true
        },
        "responses": {
          "200": {
            "description": "Successful Response",
            "content": {
              "application/json": {
                "schema": {}
              }
            }
          },
          "422": {
            "description": "Validation Error",
            "content": {
              "application/json": {
                "schema": {
                  "$ref": "#/components/schemas/HTTPValidationError"
                }
              }
            }
          }
        }
      }
    },
    "/manage/setNickname/": {
      "put": {
        "tags": ["manage"],
        "summary": "Set Nickname",
        "operationId": "set_nickname_manage_setNickname__put",
        "requestBody": {
          "content": {
            "application/json": {
              "schema": {
                "$ref": "#/components/schemas/SetNicknameRequest"
              }
            }
          },
          "required": true
        },
        "responses": {
          "200": {
            "description": "Successful Response",
            "content": {
              "application/json": {
                "schema": {}
              }
            }
          },
          "422": {
            "description": "Validation Error",
            "content": {
              "application/json": {
                "schema": {
                  "$ref": "#/components/schemas/HTTPValidationError"
                }
              }
            }
          }
        }
      }
    },
    "/login/pseudonym/": {
      "post": {
        "tags": ["login"],
        "summary": "Login Pseudonym",
        "operationId": "login_pseudonym_login_pseudonym__post",
        "requestBody": {
          "content": {
            "application/json": {
              "schema": {
                "$ref": "#/components/schemas/PseudonymRequest"
              }
            }
          },
          "required": true
        },
        "responses": {
          "200": {
            "description": "Successful Response",
            "content": {
              "application/json": {
                "schema": {}
              }
            }
          },
          "422": {
            "description": "Validation Error",
            "content": {
              "application/json": {
                "schema": {
                  "$ref": "#/components/schemas/HTTPValidationError"
                }
              }
            }
          }
        }
      }
    },
    "/login/method/": {
      "post": {
        "tags": ["login"],
        "summary": "Login Method",
        "operationId": "login_method_login_method__post",
        "requestBody": {
          "content": {
            "application/json": {
              "schema": {
                "$ref": "#/components/schemas/MethodLoginRequest"
              }
            }
          },
          "required": true
        },
        "responses": {
          "200": {
            "description": "Successful Response",
            "content": {
              "application/json": {
                "schema": {}
              }
            }
          },
          "422": {
            "description": "Validation Error",
            "content": {
              "application/json": {
                "schema": {
                  "$ref": "#/components/schemas/HTTPValidationError"
                }
              }
            }
          }
        }
      }
    },
    "/": {
      "get": {
        "summary": "Index",
        "operationId": "index__get",
        "responses": {
          "200": {
            "description": "Successful Response",
            "content": {
              "application/json": {
                "schema": {}
              }
            }
          }
        }
      }
    }
  },
  "components": {
    "schemas": {
      "CreateLoginRequest": {
        "title": "CreateLoginRequest",
        "required": ["nickname", "login_method", "login_value"],
        "type": "object",
        "properties": {
          "nickname": {
            "title": "Nickname",
            "type": "string"
          },
          "surname": {
            "title": "Surname",
            "type": "string"
          },
          "forename": {
            "title": "Forename",
            "type": "string"
          },
          "login_method": {
            "title": "Login Method",
            "type": "string"
          },
          "login_value": {
            "title": "Login Value",
            "type": "string"
          }
        }
      },
      "CreatePlayerRequest": {
        "title": "CreatePlayerRequest",
        "required": ["nickname"],
        "type": "object",
        "properties": {
          "nickname": {
            "title": "Nickname",
            "type": "string"
          },
          "surname": {
            "title": "Surname",
            "type": "string"
          },
          "forename": {
            "title": "Forename",
            "type": "string"
          }
        }
      },
      "DeleteLoginRequest": {
        "title": "DeleteLoginRequest",
        "required": ["method", "pseudonym"],
        "type": "object",
        "properties": {
          "method": {
            "title": "Method",
            "type": "string"
          },
          "pseudonym": {
            "title": "Pseudonym",
            "type": "string"
          }
        }
      },
      "HTTPValidationError": {
        "title": "HTTPValidationError",
        "type": "object",
        "properties": {
          "detail": {
            "title": "Detail",
            "type": "array",
            "items": {
              "$ref": "#/components/schemas/ValidationError"
            }
          }
        }
      },
      "ManageLoginMethodRequest": {
        "title": "ManageLoginMethodRequest",
        "required": ["method", "value", "pseudonym"],
        "type": "object",
        "properties": {
          "method": {
            "title": "Method",
            "type": "string"
          },
          "value": {
            "title": "Value",
            "type": "string"
          },
          "pseudonym": {
            "title": "Pseudonym",
            "type": "string"
          }
        }
      },
      "MethodLoginRequest": {
        "title": "MethodLoginRequest",
        "required": ["method", "value"],
        "type": "object",
        "properties": {
          "method": {
            "title": "Method",
            "type": "string"
          },
          "value": {
            "title": "Value",
            "type": "string"
          }
        }
      },
      "PseudonymRequest": {
        "title": "PseudonymRequest",
        "required": ["pseudonym"],
        "type": "object",
        "properties": {
          "pseudonym": {
            "title": "Pseudonym",
            "type": "string"
          }
        }
      },
      "SetNicknameRequest": {
        "title": "SetNicknameRequest",
        "required": ["pseudonym", "newNick"],
        "type": "object",
        "properties": {
          "pseudonym": {
            "title": "Pseudonym",
            "type": "string"
          },
          "newNick": {
            "title": "Newnick",
            "type": "string"
          }
        }
      },
      "ValidationError": {
        "title": "ValidationError",
        "required": ["loc", "msg", "type"],
        "type": "object",
        "properties": {
          "loc": {
            "title": "Location",
            "type": "array",
            "items": {
              "type": "string"
            }
          },
          "msg": {
            "title": "Message",
            "type": "string"
          },
          "type": {
            "title": "Error Type",
            "type": "string"
          }
        }
      }
    }
  }
}
